<svg width="24" height="24" viewBox="0 0 24 24" fill="none" xmlns="http://www.w3.org/2000/svg">
<path d="M5.18346 13.0606L11.7902 6.16659C12.4643 5.46324 13.3785 5.0681 14.3317 5.0681C15.285 5.0681 16.1992 5.46324 16.8732 6.16659C17.5473 6.86995 17.9259 7.8239 17.9259 8.81859C17.9259 9.81328 17.5473 10.7672 16.8732 11.4706L9.24871 19.4251C8.9776 19.6983 8.61448 19.8495 8.23758 19.8461C7.86067 19.8427 7.50012 19.6849 7.2336 19.4068C6.96708 19.1287 6.8159 18.7525 6.81262 18.3592C6.80935 17.9659 6.95424 17.587 7.21609 17.3041L14.8392 9.34809C14.9701 9.20664 15.0425 9.01719 15.0409 8.82054C15.0392 8.62389 14.9637 8.43578 14.8304 8.29673C14.6971 8.15767 14.5169 8.0788 14.3284 8.07709C14.14 8.07538 13.9584 8.15097 13.8228 8.28759L6.19978 16.2451C5.92519 16.5218 5.70616 16.8529 5.55549 17.2189C5.40481 17.5849 5.3255 17.9785 5.32218 18.3769C5.31887 18.7752 5.39161 19.1703 5.53616 19.539C5.68072 19.9076 5.8942 20.2426 6.16414 20.5243C6.43408 20.806 6.75508 21.0287 7.10841 21.1796C7.46174 21.3304 7.84032 21.4063 8.22206 21.4028C8.6038 21.3994 8.98105 21.3166 9.33181 21.1594C9.68258 21.0022 9.99982 20.7736 10.265 20.4871L17.8895 12.5326C18.8331 11.548 19.3632 10.2125 19.3632 8.82009C19.3632 7.42763 18.8331 6.09221 17.8895 5.10759C16.9459 4.12298 15.6662 3.56982 14.3317 3.56982C12.9973 3.56982 11.7175 4.12298 10.7739 5.10759L4.16571 12.0001C4.09707 12.0693 4.04231 12.152 4.00464 12.2435C3.96697 12.335 3.94715 12.4335 3.94632 12.533C3.94549 12.6326 3.96367 12.7314 3.99981 12.8236C4.03595 12.9157 4.08932 12.9995 4.15681 13.0699C4.22429 13.1403 4.30454 13.196 4.39287 13.2337C4.4812 13.2714 4.57585 13.2904 4.67128 13.2895C4.76672 13.2887 4.86103 13.268 4.94872 13.2287C5.03641 13.1894 5.11572 13.1322 5.18203 13.0606H5.18346Z" fill="#31251C"/>
</svg>
