<svg width="4" height="52" viewBox="0 0 4 52" fill="none" xmlns="http://www.w3.org/2000/svg">
<circle cx="2" cy="2" r="2" fill="white" fill-opacity="0.4"/>
<circle cx="2" cy="14" r="2" fill="white" fill-opacity="0.4"/>
<circle cx="2" cy="26" r="2" fill="white" fill-opacity="0.4"/>
<circle cx="2" cy="38" r="2" fill="white" fill-opacity="0.4"/>
<circle cx="2" cy="50" r="2" fill="white" fill-opacity="0.4"/>
</svg>
